%YAML 1.1
%TAG !u! tag:unity3d.com,2011:
--- !u!1045 &1
EditorBuildSettings:
  m_ObjectHideFlags: 0
  serializedVersion: 2
  m_Scenes:
  - enabled: 1
    path: "Assets/\u0421\u043E\u0440\u0442\u0438\u0440\u043E\u0432\u043E\u0447\u043A\u0430/Scenes/MainMenu.unity"
    guid: 95f91f31ae2cf3640a39c0dbcff16e27
  - enabled: 1
    path: "Assets/\u0421\u043E\u0440\u0442\u0438\u0440\u043E\u0432\u043E\u0447\u043A\u0430/Scenes/PoliceLevel.unity"
    guid: 2cda990e2423bbf4892e6590ba056729
  - enabled: 1
    path: "Assets/\u0421\u043E\u0440\u0442\u0438\u0440\u043E\u0432\u043E\u0447\u043A\u0430/Scenes/Tourist.unity"
    guid: 54524539bc291e647be7f8d300e911ad
  m_configObjects: {}
