%YAML 1.1
%TAG !u! tag:unity3d.com,2011:
--- !u!74 &7400000
AnimationClip:
  m_ObjectHideFlags: 0
  m_CorrespondingSourceObject: {fileID: 0}
  m_PrefabInstance: {fileID: 0}
  m_PrefabAsset: {fileID: 0}
  m_Name: police1
  serializedVersion: 6
  m_Legacy: 0
  m_Compressed: 0
  m_UseHighQualityCurve: 1
  m_RotationCurves: []
  m_CompressedRotationCurves: []
  m_EulerCurves: []
  m_PositionCurves: []
  m_ScaleCurves: []
  m_FloatCurves: []
  m_PPtrCurves:
  - curve:
    - time: 0
      value: {fileID: 5634852531637176717, guid: 5668d6e123542794b892b055b0fa28e0,
        type: 3}
    - time: 0.033333335
      value: {fileID: -2185494390230850006, guid: 5668d6e123542794b892b055b0fa28e0,
        type: 3}
    - time: 0.06666667
      value: {fileID: -5907673449353454967, guid: 5668d6e123542794b892b055b0fa28e0,
        type: 3}
    - time: 0.1
      value: {fileID: -371852966132274509, guid: 5668d6e123542794b892b055b0fa28e0,
        type: 3}
    - time: 0.13333334
      value: {fileID: 4747141199153548253, guid: 5668d6e123542794b892b055b0fa28e0,
        type: 3}
    - time: 0.16666667
      value: {fileID: 8864817902620821719, guid: 5668d6e123542794b892b055b0fa28e0,
        type: 3}
    - time: 0.2
      value: {fileID: -1989785438390653598, guid: 5668d6e123542794b892b055b0fa28e0,
        type: 3}
    - time: 0.23333333
      value: {fileID: 3327633608645585321, guid: 5668d6e123542794b892b055b0fa28e0,
        type: 3}
    - time: 0.26666668
      value: {fileID: -6358147440145618371, guid: 5668d6e123542794b892b055b0fa28e0,
        type: 3}
    - time: 0.3
      value: {fileID: 1342508708110776405, guid: 5668d6e123542794b892b055b0fa28e0,
        type: 3}
    - time: 0.33333334
      value: {fileID: 6389566001792183980, guid: 5668d6e123542794b892b055b0fa28e0,
        type: 3}
    - time: 0.36666667
      value: {fileID: -1842548956605287969, guid: 5668d6e123542794b892b055b0fa28e0,
        type: 3}
    - time: 0.38333333
      value: {fileID: 199006978655545023, guid: 5668d6e123542794b892b055b0fa28e0,
        type: 3}
    - time: 0.41666666
      value: {fileID: -5529156675308764899, guid: 5668d6e123542794b892b055b0fa28e0,
        type: 3}
    - time: 0.45
      value: {fileID: -515753045766414658, guid: 5668d6e123542794b892b055b0fa28e0,
        type: 3}
    - time: 0.48333332
      value: {fileID: 8071885673791854343, guid: 5668d6e123542794b892b055b0fa28e0,
        type: 3}
    - time: 0.51666665
      value: {fileID: 6627014623332041479, guid: 5668d6e123542794b892b055b0fa28e0,
        type: 3}
    - time: 0.55
      value: {fileID: 4519704028174241526, guid: 5668d6e123542794b892b055b0fa28e0,
        type: 3}
    - time: 0.5833333
      value: {fileID: -4556328971674770926, guid: 5668d6e123542794b892b055b0fa28e0,
        type: 3}
    - time: 0.6166667
      value: {fileID: -270438172671947630, guid: 5668d6e123542794b892b055b0fa28e0,
        type: 3}
    - time: 0.65
      value: {fileID: -380138522062816794, guid: 5668d6e123542794b892b055b0fa28e0,
        type: 3}
    - time: 0.68333334
      value: {fileID: -3442976695789078949, guid: 5668d6e123542794b892b055b0fa28e0,
        type: 3}
    - time: 0.71666664
      value: {fileID: 3017860492152210806, guid: 5668d6e123542794b892b055b0fa28e0,
        type: 3}
    - time: 0.75
      value: {fileID: 1707748383364910618, guid: 5668d6e123542794b892b055b0fa28e0,
        type: 3}
    - time: 0.78333336
      value: {fileID: 8782995785996964961, guid: 5668d6e123542794b892b055b0fa28e0,
        type: 3}
    - time: 0.81666666
      value: {fileID: -8999626283331305326, guid: 5668d6e123542794b892b055b0fa28e0,
        type: 3}
    - time: 0.85
      value: {fileID: 4214784732099354349, guid: 5668d6e123542794b892b055b0fa28e0,
        type: 3}
    - time: 0.8833333
      value: {fileID: 3669404591340544390, guid: 5668d6e123542794b892b055b0fa28e0,
        type: 3}
    - time: 0.9166667
      value: {fileID: 7002129674402682329, guid: 5668d6e123542794b892b055b0fa28e0,
        type: 3}
    - time: 0.95
      value: {fileID: -3721927940949218658, guid: 5668d6e123542794b892b055b0fa28e0,
        type: 3}
    - time: 0.98333335
      value: {fileID: 2340980994565138428, guid: 5668d6e123542794b892b055b0fa28e0,
        type: 3}
    - time: 1.0166667
      value: {fileID: -499559374763817696, guid: 5668d6e123542794b892b055b0fa28e0,
        type: 3}
    - time: 1.05
      value: {fileID: 8558436925328437690, guid: 5668d6e123542794b892b055b0fa28e0,
        type: 3}
    - time: 1.0833334
      value: {fileID: 1778672285464331268, guid: 5668d6e123542794b892b055b0fa28e0,
        type: 3}
    - time: 1.1166667
      value: {fileID: 4290476628698762027, guid: 5668d6e123542794b892b055b0fa28e0,
        type: 3}
    - time: 1.1333333
      value: {fileID: -2903290731331876641, guid: 5668d6e123542794b892b055b0fa28e0,
        type: 3}
    - time: 1.1666666
      value: {fileID: -2446488596180613951, guid: 5668d6e123542794b892b055b0fa28e0,
        type: 3}
    - time: 1.2
      value: {fileID: 858266893375418839, guid: 5668d6e123542794b892b055b0fa28e0,
        type: 3}
    - time: 1.2333333
      value: {fileID: -7575557819058356014, guid: 5668d6e123542794b892b055b0fa28e0,
        type: 3}
    - time: 1.2666667
      value: {fileID: -2485765904462783152, guid: 5668d6e123542794b892b055b0fa28e0,
        type: 3}
    - time: 1.3
      value: {fileID: -5329670231318780740, guid: 5668d6e123542794b892b055b0fa28e0,
        type: 3}
    - time: 1.3333334
      value: {fileID: 3431885590353754974, guid: 5668d6e123542794b892b055b0fa28e0,
        type: 3}
    - time: 1.3666667
      value: {fileID: 7781110994217323961, guid: 5668d6e123542794b892b055b0fa28e0,
        type: 3}
    - time: 1.4
      value: {fileID: -5104750221961068713, guid: 5668d6e123542794b892b055b0fa28e0,
        type: 3}
    - time: 1.4333333
      value: {fileID: -7529484461454519256, guid: 5668d6e123542794b892b055b0fa28e0,
        type: 3}
    - time: 1.4666667
      value: {fileID: 5121651018692413623, guid: 5668d6e123542794b892b055b0fa28e0,
        type: 3}
    - time: 1.5
      value: {fileID: -8347031583580531609, guid: 5668d6e123542794b892b055b0fa28e0,
        type: 3}
    attribute: m_Sprite
    path: 
    classID: 212
    script: {fileID: 0}
  m_SampleRate: 60
  m_WrapMode: 0
  m_Bounds:
    m_Center: {x: 0, y: 0, z: 0}
    m_Extent: {x: 0, y: 0, z: 0}
  m_ClipBindingConstant:
    genericBindings:
    - serializedVersion: 2
      path: 0
      attribute: 0
      script: {fileID: 0}
      typeID: 212
      customType: 23
      isPPtrCurve: 1
    pptrCurveMapping:
    - {fileID: 5634852531637176717, guid: 5668d6e123542794b892b055b0fa28e0, type: 3}
    - {fileID: -2185494390230850006, guid: 5668d6e123542794b892b055b0fa28e0, type: 3}
    - {fileID: -5907673449353454967, guid: 5668d6e123542794b892b055b0fa28e0, type: 3}
    - {fileID: -371852966132274509, guid: 5668d6e123542794b892b055b0fa28e0, type: 3}
    - {fileID: 4747141199153548253, guid: 5668d6e123542794b892b055b0fa28e0, type: 3}
    - {fileID: 8864817902620821719, guid: 5668d6e123542794b892b055b0fa28e0, type: 3}
    - {fileID: -1989785438390653598, guid: 5668d6e123542794b892b055b0fa28e0, type: 3}
    - {fileID: 3327633608645585321, guid: 5668d6e123542794b892b055b0fa28e0, type: 3}
    - {fileID: -6358147440145618371, guid: 5668d6e123542794b892b055b0fa28e0, type: 3}
    - {fileID: 1342508708110776405, guid: 5668d6e123542794b892b055b0fa28e0, type: 3}
    - {fileID: 6389566001792183980, guid: 5668d6e123542794b892b055b0fa28e0, type: 3}
    - {fileID: -1842548956605287969, guid: 5668d6e123542794b892b055b0fa28e0, type: 3}
    - {fileID: 199006978655545023, guid: 5668d6e123542794b892b055b0fa28e0, type: 3}
    - {fileID: -5529156675308764899, guid: 5668d6e123542794b892b055b0fa28e0, type: 3}
    - {fileID: -515753045766414658, guid: 5668d6e123542794b892b055b0fa28e0, type: 3}
    - {fileID: 8071885673791854343, guid: 5668d6e123542794b892b055b0fa28e0, type: 3}
    - {fileID: 6627014623332041479, guid: 5668d6e123542794b892b055b0fa28e0, type: 3}
    - {fileID: 4519704028174241526, guid: 5668d6e123542794b892b055b0fa28e0, type: 3}
    - {fileID: -4556328971674770926, guid: 5668d6e123542794b892b055b0fa28e0, type: 3}
    - {fileID: -270438172671947630, guid: 5668d6e123542794b892b055b0fa28e0, type: 3}
    - {fileID: -380138522062816794, guid: 5668d6e123542794b892b055b0fa28e0, type: 3}
    - {fileID: -3442976695789078949, guid: 5668d6e123542794b892b055b0fa28e0, type: 3}
    - {fileID: 3017860492152210806, guid: 5668d6e123542794b892b055b0fa28e0, type: 3}
    - {fileID: 1707748383364910618, guid: 5668d6e123542794b892b055b0fa28e0, type: 3}
    - {fileID: 8782995785996964961, guid: 5668d6e123542794b892b055b0fa28e0, type: 3}
    - {fileID: -8999626283331305326, guid: 5668d6e123542794b892b055b0fa28e0, type: 3}
    - {fileID: 4214784732099354349, guid: 5668d6e123542794b892b055b0fa28e0, type: 3}
    - {fileID: 3669404591340544390, guid: 5668d6e123542794b892b055b0fa28e0, type: 3}
    - {fileID: 7002129674402682329, guid: 5668d6e123542794b892b055b0fa28e0, type: 3}
    - {fileID: -3721927940949218658, guid: 5668d6e123542794b892b055b0fa28e0, type: 3}
    - {fileID: 2340980994565138428, guid: 5668d6e123542794b892b055b0fa28e0, type: 3}
    - {fileID: -499559374763817696, guid: 5668d6e123542794b892b055b0fa28e0, type: 3}
    - {fileID: 8558436925328437690, guid: 5668d6e123542794b892b055b0fa28e0, type: 3}
    - {fileID: 1778672285464331268, guid: 5668d6e123542794b892b055b0fa28e0, type: 3}
    - {fileID: 4290476628698762027, guid: 5668d6e123542794b892b055b0fa28e0, type: 3}
    - {fileID: -2903290731331876641, guid: 5668d6e123542794b892b055b0fa28e0, type: 3}
    - {fileID: -2446488596180613951, guid: 5668d6e123542794b892b055b0fa28e0, type: 3}
    - {fileID: 858266893375418839, guid: 5668d6e123542794b892b055b0fa28e0, type: 3}
    - {fileID: -7575557819058356014, guid: 5668d6e123542794b892b055b0fa28e0, type: 3}
    - {fileID: -2485765904462783152, guid: 5668d6e123542794b892b055b0fa28e0, type: 3}
    - {fileID: -5329670231318780740, guid: 5668d6e123542794b892b055b0fa28e0, type: 3}
    - {fileID: 3431885590353754974, guid: 5668d6e123542794b892b055b0fa28e0, type: 3}
    - {fileID: 7781110994217323961, guid: 5668d6e123542794b892b055b0fa28e0, type: 3}
    - {fileID: -5104750221961068713, guid: 5668d6e123542794b892b055b0fa28e0, type: 3}
    - {fileID: -7529484461454519256, guid: 5668d6e123542794b892b055b0fa28e0, type: 3}
    - {fileID: 5121651018692413623, guid: 5668d6e123542794b892b055b0fa28e0, type: 3}
    - {fileID: -8347031583580531609, guid: 5668d6e123542794b892b055b0fa28e0, type: 3}
  m_AnimationClipSettings:
    serializedVersion: 2
    m_AdditiveReferencePoseClip: {fileID: 0}
    m_AdditiveReferencePoseTime: 0
    m_StartTime: 0
    m_StopTime: 1.5166667
    m_OrientationOffsetY: 0
    m_Level: 0
    m_CycleOffset: 0
    m_HasAdditiveReferencePose: 0
    m_LoopTime: 1
    m_LoopBlend: 0
    m_LoopBlendOrientation: 0
    m_LoopBlendPositionY: 0
    m_LoopBlendPositionXZ: 0
    m_KeepOriginalOrientation: 0
    m_KeepOriginalPositionY: 1
    m_KeepOriginalPositionXZ: 0
    m_HeightFromFeet: 0
    m_Mirror: 0
  m_EditorCurves: []
  m_EulerEditorCurves: []
  m_HasGenericRootTransform: 0
  m_HasMotionFloatCurves: 0
  m_Events: []
