%YAML 1.1
%TAG !u! tag:unity3d.com,2011:
--- !u!114 &11400000
MonoBehaviour:
  m_ObjectHideFlags: 0
  m_CorrespondingSourceObject: {fileID: 0}
  m_PrefabInstance: {fileID: 0}
  m_PrefabAsset: {fileID: 0}
  m_GameObject: {fileID: 0}
  m_Enabled: 1
  m_EditorHideFlags: 0
  m_Script: {fileID: 11500000, guid: b6c88e76926c9a64b92874e628e03a83, type: 3}
  m_Name: Bandit4
  m_EditorClassIdentifier: 
  m_Texture: {fileID: 2800000, guid: 91149a54bf5ee6a44bf0db2f57def847, type: 3}
  m_Padding: 1
  m_MaxSize: 2048
  m_PackingMethod: 1
  m_DefaultPivot: 0
  m_DefaultCustomPivot: {x: 0.5, y: 0.5}
  m_Sprites:
  - source: {fileID: 21300000, guid: 26084eb253e882a4180abd807f77380c, type: 3}
    targetSprite: {fileID: 1329824186356421261, guid: 91149a54bf5ee6a44bf0db2f57def847,
      type: 3}
  - source: {fileID: 21300000, guid: 73434f4f5fe1f504cb6d55471e19b982, type: 3}
    targetSprite: {fileID: 6161420962260219314, guid: 91149a54bf5ee6a44bf0db2f57def847,
      type: 3}
  - source: {fileID: 21300000, guid: 7207c1f066eb18341886ae77e39e824e, type: 3}
    targetSprite: {fileID: 1689474192966481290, guid: 91149a54bf5ee6a44bf0db2f57def847,
      type: 3}
  - source: {fileID: 21300000, guid: 376f07f349401254b9885d7f5459a1ef, type: 3}
    targetSprite: {fileID: -7240998120158131687, guid: 91149a54bf5ee6a44bf0db2f57def847,
      type: 3}
  - source: {fileID: 21300000, guid: c94c2b1217591c74d9c88d184203b8d6, type: 3}
    targetSprite: {fileID: -543632503872274494, guid: 91149a54bf5ee6a44bf0db2f57def847,
      type: 3}
  - source: {fileID: 21300000, guid: 3e526fff5576060499c39d38b0c1203c, type: 3}
    targetSprite: {fileID: 7424550164333220793, guid: 91149a54bf5ee6a44bf0db2f57def847,
      type: 3}
  - source: {fileID: 21300000, guid: d867450eca5965647b74e0e5f7d1d986, type: 3}
    targetSprite: {fileID: 6531619501506204842, guid: 91149a54bf5ee6a44bf0db2f57def847,
      type: 3}
  - source: {fileID: 21300000, guid: 116aa39079079d34cbecc1be30a1eaee, type: 3}
    targetSprite: {fileID: 220224906439630833, guid: 91149a54bf5ee6a44bf0db2f57def847,
      type: 3}
  - source: {fileID: 21300000, guid: f3b7973483c46144b9f887fc10a0bdf7, type: 3}
    targetSprite: {fileID: -9205082510635764144, guid: 91149a54bf5ee6a44bf0db2f57def847,
      type: 3}
  - source: {fileID: 21300000, guid: 2321f59a7d9c71b459ea51b6d148f3db, type: 3}
    targetSprite: {fileID: -1216730736127667080, guid: 91149a54bf5ee6a44bf0db2f57def847,
      type: 3}
  - source: {fileID: 21300000, guid: 361ae2b03c42deb479626cc59134afc9, type: 3}
    targetSprite: {fileID: -8252963350189787064, guid: 91149a54bf5ee6a44bf0db2f57def847,
      type: 3}
  - source: {fileID: 21300000, guid: ae632e9863926a54fbf926238ba94785, type: 3}
    targetSprite: {fileID: -1762323323155012101, guid: 91149a54bf5ee6a44bf0db2f57def847,
      type: 3}
  - source: {fileID: 21300000, guid: f0d350f0d34b6004e807399250853a04, type: 3}
    targetSprite: {fileID: -4447782265607981892, guid: 91149a54bf5ee6a44bf0db2f57def847,
      type: 3}
  - source: {fileID: 21300000, guid: e2b6cf5aec559de458c7bef515fa5d31, type: 3}
    targetSprite: {fileID: -4248061367819884468, guid: 91149a54bf5ee6a44bf0db2f57def847,
      type: 3}
  - source: {fileID: 21300000, guid: 7c6e0b4c4e1539544bf630d860637d5c, type: 3}
    targetSprite: {fileID: -4311819675989527297, guid: 91149a54bf5ee6a44bf0db2f57def847,
      type: 3}
  - source: {fileID: 21300000, guid: 5e94bd6d719f42f49a05b434fb6d39ff, type: 3}
    targetSprite: {fileID: -3610246255502366086, guid: 91149a54bf5ee6a44bf0db2f57def847,
      type: 3}
  - source: {fileID: 21300000, guid: 02efccf8972f57842bb829114fd4093d, type: 3}
    targetSprite: {fileID: 1467737159427214794, guid: 91149a54bf5ee6a44bf0db2f57def847,
      type: 3}
  - source: {fileID: 21300000, guid: 66383e4ffce0b014797a2d33dbe904eb, type: 3}
    targetSprite: {fileID: -7553503660977991189, guid: 91149a54bf5ee6a44bf0db2f57def847,
      type: 3}
  - source: {fileID: 21300000, guid: e9aa5092ec4ecac4c97d17f06f026a9b, type: 3}
    targetSprite: {fileID: 5347961832469161986, guid: 91149a54bf5ee6a44bf0db2f57def847,
      type: 3}
  - source: {fileID: 21300000, guid: 55b2bfabf83860d44bbbb07d106221a8, type: 3}
    targetSprite: {fileID: 2428809932386952170, guid: 91149a54bf5ee6a44bf0db2f57def847,
      type: 3}
  - source: {fileID: 21300000, guid: ac25a21948b2b8b48aefd811e4cf6643, type: 3}
    targetSprite: {fileID: -1917575696803937253, guid: 91149a54bf5ee6a44bf0db2f57def847,
      type: 3}
  - source: {fileID: 21300000, guid: 448cc9c678b0e284eb63a90dddd22df1, type: 3}
    targetSprite: {fileID: 470019506600342454, guid: 91149a54bf5ee6a44bf0db2f57def847,
      type: 3}
  - source: {fileID: 21300000, guid: 0311f5a934df92648af6960ac533e506, type: 3}
    targetSprite: {fileID: -5651177059354890130, guid: 91149a54bf5ee6a44bf0db2f57def847,
      type: 3}
  - source: {fileID: 21300000, guid: 94d7b74deebfc774e82301746a973c15, type: 3}
    targetSprite: {fileID: 2472937643005764312, guid: 91149a54bf5ee6a44bf0db2f57def847,
      type: 3}
  - source: {fileID: 21300000, guid: fcbda0689acb6eb4c880580a08e9458b, type: 3}
    targetSprite: {fileID: -5758369720890757297, guid: 91149a54bf5ee6a44bf0db2f57def847,
      type: 3}
  - source: {fileID: 21300000, guid: 7e30c1562c894c24c8339d40bc9acd67, type: 3}
    targetSprite: {fileID: -4236823363385909504, guid: 91149a54bf5ee6a44bf0db2f57def847,
      type: 3}
  - source: {fileID: 21300000, guid: 9e799bfa4f9c5c540b0880c4b8ce91f4, type: 3}
    targetSprite: {fileID: 5740173911012637773, guid: 91149a54bf5ee6a44bf0db2f57def847,
      type: 3}
  - source: {fileID: 21300000, guid: 4adc5dbd579eedd40886c0e39a082f52, type: 3}
    targetSprite: {fileID: -529107956168686312, guid: 91149a54bf5ee6a44bf0db2f57def847,
      type: 3}
  - source: {fileID: 21300000, guid: 231e28acaf00c844097e85381dbfef54, type: 3}
    targetSprite: {fileID: 7658092560779916391, guid: 91149a54bf5ee6a44bf0db2f57def847,
      type: 3}
  - source: {fileID: 21300000, guid: 78a28c88e505da844a6a4cddf5826459, type: 3}
    targetSprite: {fileID: -6876020591371756214, guid: 91149a54bf5ee6a44bf0db2f57def847,
      type: 3}
  - source: {fileID: 21300000, guid: c5bc7462d6f2c5f4490643fe22c3a2f1, type: 3}
    targetSprite: {fileID: 3670616622624838084, guid: 91149a54bf5ee6a44bf0db2f57def847,
      type: 3}
  - source: {fileID: 21300000, guid: 8d83e188a994a01408a95c967e559883, type: 3}
    targetSprite: {fileID: -1064738211053500337, guid: 91149a54bf5ee6a44bf0db2f57def847,
      type: 3}
  - source: {fileID: 21300000, guid: a747d369470231c4d9262f4ba1ff495d, type: 3}
    targetSprite: {fileID: 1794334244585032848, guid: 91149a54bf5ee6a44bf0db2f57def847,
      type: 3}
  - source: {fileID: 21300000, guid: b09fcd2668ff9464ebadbde9dd3beefb, type: 3}
    targetSprite: {fileID: -5575296070446873490, guid: 91149a54bf5ee6a44bf0db2f57def847,
      type: 3}
  - source: {fileID: 21300000, guid: e9c3992c09ade2741b3dc2619d26a1c4, type: 3}
    targetSprite: {fileID: -3735655820032978800, guid: 91149a54bf5ee6a44bf0db2f57def847,
      type: 3}
  - source: {fileID: 21300000, guid: 8f50a0c10d633ef4991dbbac66ca7685, type: 3}
    targetSprite: {fileID: 4237485633570929248, guid: 91149a54bf5ee6a44bf0db2f57def847,
      type: 3}
  - source: {fileID: 21300000, guid: 93f1a91c5cc710f40880deaa5b618ad3, type: 3}
    targetSprite: {fileID: 8479571100886932240, guid: 91149a54bf5ee6a44bf0db2f57def847,
      type: 3}
  - source: {fileID: 21300000, guid: 2ca70ba52d58a6d4698cb23733765c40, type: 3}
    targetSprite: {fileID: -1159982456928975724, guid: 91149a54bf5ee6a44bf0db2f57def847,
      type: 3}
  - source: {fileID: 21300000, guid: 84af0e2f6d0903d4daa825811f0bb7b3, type: 3}
    targetSprite: {fileID: -3476624064022890087, guid: 91149a54bf5ee6a44bf0db2f57def847,
      type: 3}
  - source: {fileID: 21300000, guid: 76a0fcb2463166d439f6ebf917047bd9, type: 3}
    targetSprite: {fileID: 6554853418880008712, guid: 91149a54bf5ee6a44bf0db2f57def847,
      type: 3}
  - source: {fileID: 21300000, guid: 5571707d8aa22634f92f01aec30fee4e, type: 3}
    targetSprite: {fileID: -3051578000262889498, guid: 91149a54bf5ee6a44bf0db2f57def847,
      type: 3}
  - source: {fileID: 21300000, guid: d7800872b39894e4cb8d09476678c715, type: 3}
    targetSprite: {fileID: -2517069140618296646, guid: 91149a54bf5ee6a44bf0db2f57def847,
      type: 3}
  - source: {fileID: 21300000, guid: 0bf144c5abc3a8d4e97559c3787a1bc6, type: 3}
    targetSprite: {fileID: 3776351011906545950, guid: 91149a54bf5ee6a44bf0db2f57def847,
      type: 3}
  - source: {fileID: 21300000, guid: b5c41c844a50a094eaacfd88504c79b6, type: 3}
    targetSprite: {fileID: -1526161292743726977, guid: 91149a54bf5ee6a44bf0db2f57def847,
      type: 3}
  - source: {fileID: 21300000, guid: 48250b5bb370c72418c4027ccda353af, type: 3}
    targetSprite: {fileID: -8813346802355977981, guid: 91149a54bf5ee6a44bf0db2f57def847,
      type: 3}
  - source: {fileID: 21300000, guid: 8081f0c8cc28800468680cb91a7805ad, type: 3}
    targetSprite: {fileID: -625026661253906629, guid: 91149a54bf5ee6a44bf0db2f57def847,
      type: 3}
  - source: {fileID: 21300000, guid: a56ad9c51b8347a469059bf9dbde5a13, type: 3}
    targetSprite: {fileID: -2420344311809183193, guid: 91149a54bf5ee6a44bf0db2f57def847,
      type: 3}
  - source: {fileID: 21300000, guid: dac429272437fbb41975419b2680a361, type: 3}
    targetSprite: {fileID: -1298556400471064229, guid: 91149a54bf5ee6a44bf0db2f57def847,
      type: 3}
  - source: {fileID: 21300000, guid: 1eafaec66a1479047a544a83c8531f98, type: 3}
    targetSprite: {fileID: 5842718336622023067, guid: 91149a54bf5ee6a44bf0db2f57def847,
      type: 3}
  - source: {fileID: 21300000, guid: a309de4a1a6de8d449dfcc062820a868, type: 3}
    targetSprite: {fileID: -7601931360126079094, guid: 91149a54bf5ee6a44bf0db2f57def847,
      type: 3}
  m_PendingActions: []
