%YAML 1.1
%TAG !u! tag:unity3d.com,2011:
--- !u!114 &11400000
MonoBehaviour:
  m_ObjectHideFlags: 0
  m_CorrespondingSourceObject: {fileID: 0}
  m_PrefabInstance: {fileID: 0}
  m_PrefabAsset: {fileID: 0}
  m_GameObject: {fileID: 0}
  m_Enabled: 1
  m_EditorHideFlags: 0
  m_Script: {fileID: 11500000, guid: b6c88e76926c9a64b92874e628e03a83, type: 3}
  m_Name: Donut50-99
  m_EditorClassIdentifier: 
  m_Texture: {fileID: 2800000, guid: b63d53529db7a664cbc179d13bdbf0eb, type: 3}
  m_Padding: 1
  m_MaxSize: 2048
  m_PackingMethod: 1
  m_DefaultPivot: 0
  m_DefaultCustomPivot: {x: 0.5, y: 0.5}
  m_Sprites:
  - source: {fileID: 21300000, guid: b87c7d963a4d28e41981a70db5a1cbb4, type: 3}
    targetSprite: {fileID: 7728864759691353286, guid: b63d53529db7a664cbc179d13bdbf0eb,
      type: 3}
  - source: {fileID: 21300000, guid: 1f29cd3a094ee7b4f9c28769990548eb, type: 3}
    targetSprite: {fileID: 4663370658195129749, guid: b63d53529db7a664cbc179d13bdbf0eb,
      type: 3}
  - source: {fileID: 21300000, guid: d3e2860d7ff105e4a8d2ca0b5af08967, type: 3}
    targetSprite: {fileID: 7312850477054362189, guid: b63d53529db7a664cbc179d13bdbf0eb,
      type: 3}
  - source: {fileID: 21300000, guid: 5d26c9ccc1270224a9651df3b81c2c83, type: 3}
    targetSprite: {fileID: -6899708542320195692, guid: b63d53529db7a664cbc179d13bdbf0eb,
      type: 3}
  - source: {fileID: 21300000, guid: 8651562e45b238449b0c22ef56914c66, type: 3}
    targetSprite: {fileID: -4325931278322589550, guid: b63d53529db7a664cbc179d13bdbf0eb,
      type: 3}
  - source: {fileID: 21300000, guid: 8e3af27e888923343bb4495b7b057234, type: 3}
    targetSprite: {fileID: -1142668694304349498, guid: b63d53529db7a664cbc179d13bdbf0eb,
      type: 3}
  - source: {fileID: 21300000, guid: adfd1c19b5e4eea4fa9a30785bdbd18f, type: 3}
    targetSprite: {fileID: -9124326766384408879, guid: b63d53529db7a664cbc179d13bdbf0eb,
      type: 3}
  - source: {fileID: 21300000, guid: 6de5ea135f27935458abbbeb64c7af9e, type: 3}
    targetSprite: {fileID: 6233985017962651477, guid: b63d53529db7a664cbc179d13bdbf0eb,
      type: 3}
  - source: {fileID: 21300000, guid: 24e6944301802e240b5d9dc294e3dbb6, type: 3}
    targetSprite: {fileID: 8757375961449682263, guid: b63d53529db7a664cbc179d13bdbf0eb,
      type: 3}
  - source: {fileID: 21300000, guid: 46411bb13330a384c86a462dd9bd4058, type: 3}
    targetSprite: {fileID: 2485208009136969570, guid: b63d53529db7a664cbc179d13bdbf0eb,
      type: 3}
  - source: {fileID: 21300000, guid: dfc1722067e072b4f833c9225be97272, type: 3}
    targetSprite: {fileID: -3385363199683486424, guid: b63d53529db7a664cbc179d13bdbf0eb,
      type: 3}
  - source: {fileID: 21300000, guid: 5a83dbc333ad8b84293dfdb8ecf60e0d, type: 3}
    targetSprite: {fileID: -2896088112699895977, guid: b63d53529db7a664cbc179d13bdbf0eb,
      type: 3}
  - source: {fileID: 21300000, guid: 65d2d40925ec9864b932f63757a98047, type: 3}
    targetSprite: {fileID: 6334467534419272135, guid: b63d53529db7a664cbc179d13bdbf0eb,
      type: 3}
  - source: {fileID: 21300000, guid: 3bdf88539eb0fde4d8e1de12b89de879, type: 3}
    targetSprite: {fileID: -3554553016759604258, guid: b63d53529db7a664cbc179d13bdbf0eb,
      type: 3}
  - source: {fileID: 21300000, guid: da85ec3962c7a1d4b865717231d6e8d9, type: 3}
    targetSprite: {fileID: -1874316505759948891, guid: b63d53529db7a664cbc179d13bdbf0eb,
      type: 3}
  - source: {fileID: 21300000, guid: f3895f68b80dc4f4d9eb232ad5e95793, type: 3}
    targetSprite: {fileID: 5401276468545024094, guid: b63d53529db7a664cbc179d13bdbf0eb,
      type: 3}
  - source: {fileID: 21300000, guid: e3ffc0f7d049dd147a6dbdf7476adac1, type: 3}
    targetSprite: {fileID: 8034671079694866319, guid: b63d53529db7a664cbc179d13bdbf0eb,
      type: 3}
  - source: {fileID: 21300000, guid: fba459a55cf32834db8d9df95657fa6a, type: 3}
    targetSprite: {fileID: -1443163053639115668, guid: b63d53529db7a664cbc179d13bdbf0eb,
      type: 3}
  - source: {fileID: 21300000, guid: b5ea5ee93b636a54d9d73eb60962877e, type: 3}
    targetSprite: {fileID: 6174769022614614995, guid: b63d53529db7a664cbc179d13bdbf0eb,
      type: 3}
  - source: {fileID: 21300000, guid: f377a10198964ce4983ca7f00e0c5620, type: 3}
    targetSprite: {fileID: -3018954307736206321, guid: b63d53529db7a664cbc179d13bdbf0eb,
      type: 3}
  - source: {fileID: 21300000, guid: b5b7503c7d5141f41b256d7d4c29b362, type: 3}
    targetSprite: {fileID: 2934367332654378581, guid: b63d53529db7a664cbc179d13bdbf0eb,
      type: 3}
  - source: {fileID: 21300000, guid: 545053989d4f49848a7398eac9531cda, type: 3}
    targetSprite: {fileID: 8192171143721729999, guid: b63d53529db7a664cbc179d13bdbf0eb,
      type: 3}
  - source: {fileID: 21300000, guid: 7a272b98fd3f60f4990cda318088ee7a, type: 3}
    targetSprite: {fileID: 5956022167449528036, guid: b63d53529db7a664cbc179d13bdbf0eb,
      type: 3}
  - source: {fileID: 21300000, guid: 711c25f5d4dcfe34e84b1dec2089d7e4, type: 3}
    targetSprite: {fileID: -6718775698845609356, guid: b63d53529db7a664cbc179d13bdbf0eb,
      type: 3}
  - source: {fileID: 21300000, guid: a8d711e97966fec4c9c2dd1977eec2af, type: 3}
    targetSprite: {fileID: 3007801037598655004, guid: b63d53529db7a664cbc179d13bdbf0eb,
      type: 3}
  - source: {fileID: 21300000, guid: 59dd7c61e41795a4097070d282b8d021, type: 3}
    targetSprite: {fileID: 373219863842512883, guid: b63d53529db7a664cbc179d13bdbf0eb,
      type: 3}
  - source: {fileID: 21300000, guid: 3a8c375c3a506a348ae9c09946ada717, type: 3}
    targetSprite: {fileID: -5821304978290052842, guid: b63d53529db7a664cbc179d13bdbf0eb,
      type: 3}
  - source: {fileID: 21300000, guid: 904887a6823f9e44f8ea811b5a67d3f3, type: 3}
    targetSprite: {fileID: 7650708451633851441, guid: b63d53529db7a664cbc179d13bdbf0eb,
      type: 3}
  - source: {fileID: 21300000, guid: e50cfdd86f62d3242a111e9aa8163d07, type: 3}
    targetSprite: {fileID: 2933846999766052256, guid: b63d53529db7a664cbc179d13bdbf0eb,
      type: 3}
  - source: {fileID: 21300000, guid: f0f11146fb1dc9c459093221c94f948c, type: 3}
    targetSprite: {fileID: -6261470345867905556, guid: b63d53529db7a664cbc179d13bdbf0eb,
      type: 3}
  - source: {fileID: 21300000, guid: 35404456d100354449c6aca32baa5bff, type: 3}
    targetSprite: {fileID: -5260150545021620161, guid: b63d53529db7a664cbc179d13bdbf0eb,
      type: 3}
  - source: {fileID: 21300000, guid: fce1fc1efa3c87f4cb64061ac40b99b8, type: 3}
    targetSprite: {fileID: 965008510193239768, guid: b63d53529db7a664cbc179d13bdbf0eb,
      type: 3}
  - source: {fileID: 21300000, guid: 5c5bb347652668e49a97dffb18fde165, type: 3}
    targetSprite: {fileID: 2749642519391126418, guid: b63d53529db7a664cbc179d13bdbf0eb,
      type: 3}
  - source: {fileID: 21300000, guid: 8c3c0557eb09d5e47ac9edb7b6f1b695, type: 3}
    targetSprite: {fileID: 6328256803839563222, guid: b63d53529db7a664cbc179d13bdbf0eb,
      type: 3}
  - source: {fileID: 21300000, guid: 2f6e908c61782894ba6f9be83795bcfc, type: 3}
    targetSprite: {fileID: 5863624247672831771, guid: b63d53529db7a664cbc179d13bdbf0eb,
      type: 3}
  - source: {fileID: 21300000, guid: fab94f4c3794b1f489a6fadcce8067dc, type: 3}
    targetSprite: {fileID: 3246726009265331122, guid: b63d53529db7a664cbc179d13bdbf0eb,
      type: 3}
  - source: {fileID: 21300000, guid: 63c44d4d14a4c3041af495f04e6cf25d, type: 3}
    targetSprite: {fileID: 4919182853605758307, guid: b63d53529db7a664cbc179d13bdbf0eb,
      type: 3}
  - source: {fileID: 21300000, guid: d725a56fe17d65f43a5e1a34262e56e3, type: 3}
    targetSprite: {fileID: 180447133918387286, guid: b63d53529db7a664cbc179d13bdbf0eb,
      type: 3}
  - source: {fileID: 21300000, guid: 47073925ee65b6e44aee9a5093be8fe7, type: 3}
    targetSprite: {fileID: 8015604883332344115, guid: b63d53529db7a664cbc179d13bdbf0eb,
      type: 3}
  - source: {fileID: 21300000, guid: a69bdb18ef8350b4abc447887920c5ec, type: 3}
    targetSprite: {fileID: -6726958730529426894, guid: b63d53529db7a664cbc179d13bdbf0eb,
      type: 3}
  - source: {fileID: 21300000, guid: 781d39ffa8858c24fa6994236451fbdb, type: 3}
    targetSprite: {fileID: -7237933954770830030, guid: b63d53529db7a664cbc179d13bdbf0eb,
      type: 3}
  - source: {fileID: 21300000, guid: b74c9b46766a9304990358d145d9e724, type: 3}
    targetSprite: {fileID: -6556258715237982637, guid: b63d53529db7a664cbc179d13bdbf0eb,
      type: 3}
  - source: {fileID: 21300000, guid: f4460b34bb271f34880e77d65305991e, type: 3}
    targetSprite: {fileID: -3163806579237616307, guid: b63d53529db7a664cbc179d13bdbf0eb,
      type: 3}
  - source: {fileID: 21300000, guid: 662b6cb8e6e11974883d06700964b5ed, type: 3}
    targetSprite: {fileID: 4211307268655219819, guid: b63d53529db7a664cbc179d13bdbf0eb,
      type: 3}
  - source: {fileID: 21300000, guid: 7d2bd25879401ae49b671e965588310c, type: 3}
    targetSprite: {fileID: 2357529970169494360, guid: b63d53529db7a664cbc179d13bdbf0eb,
      type: 3}
  - source: {fileID: 21300000, guid: 9c4baeebc90af614b877583ed736292a, type: 3}
    targetSprite: {fileID: 2738419484342943235, guid: b63d53529db7a664cbc179d13bdbf0eb,
      type: 3}
  - source: {fileID: 21300000, guid: e1f56a78c96ab0542a18c496e472e90d, type: 3}
    targetSprite: {fileID: 2017403226388264876, guid: b63d53529db7a664cbc179d13bdbf0eb,
      type: 3}
  - source: {fileID: 21300000, guid: ca55a47e33ebf1c4489929b6aa17f3f8, type: 3}
    targetSprite: {fileID: 6332612128863341238, guid: b63d53529db7a664cbc179d13bdbf0eb,
      type: 3}
  - source: {fileID: 21300000, guid: ff39d5bf91ce04c408cea7a66db399d9, type: 3}
    targetSprite: {fileID: 1981782097304187076, guid: b63d53529db7a664cbc179d13bdbf0eb,
      type: 3}
  - source: {fileID: 21300000, guid: 3ed8e6d1a2aae784e8d02c18a875d5b4, type: 3}
    targetSprite: {fileID: 2260063381517843491, guid: b63d53529db7a664cbc179d13bdbf0eb,
      type: 3}
  m_PendingActions: []
